{
  "$schema": "https://raw.githubusercontent.com/OAI/OpenAPI-Specification/master/schemas/v3.0/schema.json",
  "compilerOptions": {
    "allowJs": false,
    "strict": true
  },
  "importMap": "import_map.json"
}